Crowdsale info:

Address:                               0x47b18b482e714306adcda81bd6f5ef14139f9a82  (init with 50 ZEM)
Address(public deadline,beneficiary):  0xc47e5c3f55a65cda156ad4e23dcc085529a617cd  (init with 100 ZEM)
Address (after testing): 	       0xbc6851da782c9135e8873e496d7565ad6556f182  (init with 100 ZEM)

Zem info:

ZEM token address: 0x919603cb0051ca93f657c720aa578cba8ebdc9d2

Token code:

